{"items":[{"count":45,"name":"master"},{"count":38,"name":"add-official-helm-chart"},{"count":18,"name":"main"},{"count":11,"name":"new-versioning-strategy"},{"count":3,"name":"adopt-kubernetes-client-go"},{"count":3,"name":"configurable-log-format"},{"count":2,"name":"1.2.2"},{"count":2,"name":"1.2.3"},{"count":2,"name":"1.2.5"},{"count":1,"name":"1.2.1"},{"count":1,"name":"1.2.10"},{"count":1,"name":"1.2.4"},{"count":1,"name":"1.2.6"},{"count":1,"name":"1.2.7"},{"count":1,"name":"1.2.8"},{"count":1,"name":"1.2.9"},{"count":1,"name":"b64enc-toggle"},{"count":1,"name":"fix-service-update"},{"count":1,"name":"helmUpdate"},{"count":1,"name":"issue-32"}],"pagination":{"page":1,"size":20,"totalPages":2,"totalItems":22}}