{"items":[{"count":1200,"name":"master"},{"count":239,"name":"main"},{"count":65,"name":"add-official-helm-chart"},{"count":38,"name":"oauth-middleware"},{"count":28,"name":"tracing-decorators"},{"count":14,"name":"pipeline-triggers"},{"count":13,"name":"bots-support"},{"count":11,"name":"switch-to-client-go"},{"count":8,"name":"support-gcp-repos"},{"count":8,"name":"use-gomock"},{"count":7,"name":"pubsub-subscription-crossproject"},{"count":6,"name":"add-triggers"},{"count":5,"name":"frequent-labels"},{"count":4,"name":"add-certificate-defaults"},{"count":4,"name":"fix-templates-path"},{"count":4,"name":"group-oauth-providers-per-organization"},{"count":4,"name":"replace-self"},{"count":4,"name":"store-logs-in-gcs"},{"count":4,"name":"use-topic-for-publishing-and-subscribing-git-trigger-events"},{"count":3,"name":"DIS-1204"}],"pagination":{"page":1,"size":20,"totalPages":4,"totalItems":67}}