{
   "items":[
      {
         "name":"tooling",
         "action": "deploy-canary",
         "id":"401929481457893379",
         "repoSource":"github.com",
         "repoOwner":"estafette",
         "repoName":"estafette-ci-api",
         "releaseVersion":"0.1.340",
         "releaseStatus":"running",
         "triggerEvents":[{"manual":{"userID":"user@server.com"}}],
         "insertedAt":"2018-11-20T15:59:03.510987Z",
         "updatedAt":"2018-11-20T16:00:05.387526Z",
         "duration":61000000000
      },
      {
         "name":"tooling",
         "id":"401925221141577732",
         "repoSource":"github.com",
         "repoOwner":"estafette",
         "repoName":"estafette-ci-api",
         "releaseVersion":"0.1.339",
         "releaseStatus":"succeeded",
         "triggerEvents":[{"git":{"branch":"development", "event": "push", "repository": "github.com/estafette/estafette-ci-contracts"}}],
         "insertedAt":"2018-11-20T15:37:23.365593Z",
         "updatedAt":"2018-11-20T15:38:42.44489Z",
         "duration":79000000000
      },
      {
         "name":"tooling",
         "id":"401923499244158979",
         "repoSource":"github.com",
         "repoOwner":"estafette",
         "repoName":"estafette-ci-api",
         "releaseVersion":"0.1.338",
         "releaseStatus":"succeeded",
         "triggerEvents":[{"pipeline":{"buildVersion":"1.0.15", "repoSource": "github.com", "repoOwner": "estafette", "repoName": "estafette-ci-api", "repoBranch": "master", "status": "succeeded", "event": "finished"}}],
         "insertedAt":"2018-11-20T15:28:37.884292Z",
         "updatedAt":"2018-11-20T15:30:14.46558Z",
         "duration":96000000000
      },
      {
         "name":"tooling",
         "id":"401917520026271747",
         "repoSource":"github.com",
         "repoOwner":"estafette",
         "repoName":"estafette-ci-api",
         "releaseVersion":"0.1.337",
         "releaseStatus":"succeeded",
         "triggerEvents":[{"release":{"buildVersion":"1.0.15", "repoSource": "github.com", "repoOwner": "estafette", "repoName": "estafette-ci-api", "target": "tooling", "status": "succeeded", "event": "finished"}}],
         "insertedAt":"2018-11-20T14:58:13.171839Z",
         "updatedAt":"2018-11-20T14:59:19.128409Z",
         "duration":65000000000
      },
      {
         "name":"tooling",
         "id":"401911434767892482",
         "repoSource":"github.com",
         "repoOwner":"estafette",
         "repoName":"estafette-ci-api",
         "releaseVersion":"0.1.335",
         "releaseStatus":"succeeded",
         "triggerEvents":[{"cron":{"time":"2019-04-03T04:03:59Z"}}],
         "insertedAt":"2018-11-20T14:27:16.098338Z",
         "updatedAt":"2018-11-20T14:28:50.504567Z",
         "duration":94000000000
      },
      {
         "name":"tooling",
         "id":"401910063255093253",
         "repoSource":"github.com",
         "repoOwner":"estafette",
         "repoName":"estafette-ci-api",
         "releaseVersion":"0.1.335",
         "releaseStatus":"failed",
         "triggerEvents":[{"manual":{"userID":"user@server.com"}}],
         "insertedAt":"2018-11-20T14:20:17.545844Z",
         "updatedAt":"2018-11-20T14:20:32.844418Z",
         "duration":15000000000
      },
      {
         "name":"tooling",
         "id":"401899829953757187",
         "repoSource":"github.com",
         "repoOwner":"estafette",
         "repoName":"estafette-ci-api",
         "releaseVersion":"0.1.334",
         "releaseStatus":"succeeded",
         "triggerEvents":[{"manual":{"userID":"user@server.com"}}],
         "insertedAt":"2018-11-20T13:28:14.59012Z",
         "updatedAt":"2018-11-20T13:29:15.12248Z",
         "duration":60000000000
      },
      {
         "name":"tooling",
         "id":"401885724671148036",
         "repoSource":"github.com",
         "repoOwner":"estafette",
         "repoName":"estafette-ci-api",
         "releaseVersion":"0.1.333",
         "releaseStatus":"succeeded",
         "triggerEvents":[{"manual":{"userID":"user@server.com"}}],
         "insertedAt":"2018-11-20T12:16:29.99937Z",
         "updatedAt":"2018-11-20T12:19:40.958594Z",
         "duration":190000000000
      },
      {
         "name":"tooling",
         "id":"401644059622146050",
         "repoSource":"github.com",
         "repoOwner":"estafette",
         "repoName":"estafette-ci-api",
         "releaseVersion":"0.1.332",
         "releaseStatus":"succeeded",
         "triggerEvents":[{"manual":{"userID":"user@server.com"}}],
         "insertedAt":"2018-11-19T15:47:19.679311Z",
         "updatedAt":"2018-11-19T15:48:37.290565Z",
         "duration":77000000000
      },
      {
         "name":"tooling",
         "id":"401642558445813764",
         "repoSource":"github.com",
         "repoOwner":"estafette",
         "repoName":"estafette-ci-api",
         "releaseVersion":"0.1.331",
         "releaseStatus":"succeeded",
         "triggerEvents":[{"manual":{"userID":"user@server.com"}}],
         "insertedAt":"2018-11-19T15:39:41.556321Z",
         "updatedAt":"2018-11-19T15:41:19.423703Z",
         "duration":97000000000
      }
   ],
   "pagination":{
      "page":1,
      "size":10,
      "totalPages":15,
      "totalItems":148
   }
}