{
  "items":[
     {
        "id":"401928844958367746",
        "repoSource":"github.com",
        "repoOwner":"estafette",
        "repoName":"estafette-ci-api",
        "repoBranch":"master",
        "repoRevision":"f88393a5e5f6ff29f239316f64689fc0c6f66499",
        "buildVersion":"0.1.340",
        "buildStatus":"running",
        "labels":[
           {
              "key":"app",
              "value":"estafette-ci-api"
           },
           {
              "key":"app-group",
              "value":"estafette-ci"
           },
           {
              "key":"language",
              "value":"golang"
           },
           {
              "key":"team",
              "value":"estafette-team"
           }
        ],
        "releaseTargets":[
           {
              "name":"tooling"
           }
        ],
        "commits":[
           {
              "message":"1 serialize action name to lowercase in json",
              "author":{
                 "email":"jsalverda@travix.com",
                 "name":"Jorrit Salverda",
                 "username":"JorritSalverda"
              }
           },
           {
            "message":"2 serialize action name to lowercase in json",
            "author":{
               "email":"jsalverda@travix.com",
               "name":"Jorrit Salverda",
               "username":"JorritSalverda"
            }
         },
         {
            "message":"3 serialize action name to lowercase in json",
            "author":{
               "email":"jsalverda@travix.com",
               "name":"Jorrit Salverda",
               "username":"JorritSalverda"
            }
         },
         {
            "message":"4 serialize action name to lowercase in json",
            "author":{
               "email":"jsalverda@travix.com",
               "name":"Jorrit Salverda",
               "username":"JorritSalverda"
            }
         },
         {
            "message":"5 serialize action name to lowercase in json",
            "author":{
               "email":"jsalverda@travix.com",
               "name":"Jorrit Salverda",
               "username":"JorritSalverda"
            }
         }
        ],
        "insertedAt":"2018-11-20T15:55:49.266744Z",
        "updatedAt":"2018-11-20T15:55:49.266744Z",
        "duration":0
     },
     {
        "id":"401924769903869954",
        "repoSource":"github.com",
        "repoOwner":"estafette",
        "repoName":"estafette-ci-api",
        "repoBranch":"master",
        "repoRevision":"71adb3d3b48de318224b2f39d308ac8b4f3a1a0f",
        "buildVersion":"0.1.339",
        "buildStatus":"succeeded",
        "labels":[
           {
              "key":"app",
              "value":"estafette-ci-api"
           },
           {
              "key":"app-group",
              "value":"estafette-ci"
           },
           {
              "key":"language",
              "value":"golang"
           },
           {
              "key":"team",
              "value":"estafette-team"
           }
        ],
        "releaseTargets":[
           {
              "name":"tooling"
           }
        ],
        "commits":[
           {
              "message":"fix query for getting latest release",
              "author":{
                 "email":"jsalverda@travix.com",
                 "name":"Jorrit Salverda",
                 "username":"JorritSalverda"
              }
           }
        ],
        "insertedAt":"2018-11-20T15:35:05.658825Z",
        "updatedAt":"2018-11-20T15:36:41.244921Z",
        "duration":95000000000
     },
     {
      "id":"401924769903869917",
      "repoSource":"github.com",
      "repoOwner":"estafette",
      "repoName":"estafette-ci-api",
      "repoBranch":"master",
      "repoRevision":"71adb3d3b48de318224b2f39d308ac8b4f3a1a0f",
      "buildVersion":"0.1.339",
      "buildStatus":"failed",
      "labels":[
         {
            "key":"app",
            "value":"estafette-ci-api"
         },
         {
            "key":"app-group",
            "value":"estafette-ci"
         },
         {
            "key":"language",
            "value":"golang"
         },
         {
            "key":"team",
            "value":"estafette-team"
         }
      ],
      "releaseTargets":[
         {
            "name":"tooling"
         }
      ],
      "commits":[
         {
            "message":"fix query for getting latest release",
            "author":{
               "email":"jsalverda@travix.com",
               "name":"Jorrit Salverda",
               "username":"JorritSalverda"
            }
         }
      ],
      "insertedAt":"2018-11-20T15:35:05.658825Z",
      "updatedAt":"2018-11-20T15:36:41.244921Z",
      "duration":95000000000
   },
     {
        "id":"401923121088888837",
        "repoSource":"github.com",
        "repoOwner":"estafette",
        "repoName":"estafette-ci-api",
        "repoBranch":"master",
        "repoRevision":"581b9598680186acf79388a0ff5dac49ae810fa6",
        "buildVersion":"0.1.338",
        "buildStatus":"succeeded",
        "labels":[
           {
              "key":"app",
              "value":"estafette-ci-api"
           },
           {
              "key":"app-group",
              "value":"estafette-ci"
           },
           {
              "key":"language",
              "value":"golang"
           },
           {
              "key":"team",
              "value":"estafette-team"
           }
        ],
        "releaseTargets":[
           {
              "name":"tooling"
           }
        ],
        "commits":[
           {
              "message":"remove releases property from build and pipeline, it's replaced with releaseTargets",
              "author":{
                 "email":"jsalverda@travix.com",
                 "name":"Jorrit Salverda",
                 "username":"JorritSalverda"
              }
           }
        ],
        "insertedAt":"2018-11-20T15:26:42.480424Z",
        "updatedAt":"2018-11-20T15:28:27.906983Z",
        "duration":105000000000
     },
     {
        "id":"401916954203258882",
        "repoSource":"github.com",
        "repoOwner":"estafette",
        "repoName":"estafette-ci-api",
        "repoBranch":"master",
        "repoRevision":"f93ac58c2477e87526fe58640508838376fd0dd3",
        "buildVersion":"0.1.337",
        "buildStatus":"failed",
        "labels":[
           {
              "key":"app",
              "value":"estafette-ci-api"
           },
           {
              "key":"app-group",
              "value":"estafette-ci"
           },
           {
              "key":"language",
              "value":"golang"
           },
           {
              "key":"team",
              "value":"estafette-team"
           }
        ],
        "releaseTargets":[
           {
              "name":"tooling"
           }
        ],
        "commits":[
           {
              "message":"enrich builds from GetPipelineBuildsByVersion to set releaseTargets for backwards compatibility",
              "author":{
                 "email":"jsalverda@travix.com",
                 "name":"Jorrit Salverda",
                 "username":"JorritSalverda"
              }
           }
        ],
        "insertedAt":"2018-11-20T14:55:20.496376Z",
        "updatedAt":"2018-11-20T14:56:59.9065Z",
        "duration":99000000000
     },
     {
        "id":"401915980758712323",
        "repoSource":"github.com",
        "repoOwner":"estafette",
        "repoName":"estafette-ci-api",
        "repoBranch":"master",
        "repoRevision":"a98b13867f63e1b17ec3b585ff3b299d27093799",
        "buildVersion":"0.1.336",
        "buildStatus":"succeeded",
        "labels":[
           {
              "key":"app",
              "value":"estafette-ci-api"
           },
           {
              "key":"app-group",
              "value":"estafette-ci"
           },
           {
              "key":"language",
              "value":"golang"
           },
           {
              "key":"team",
              "value":"estafette-team"
           }
        ],
        "releaseTargets":[
           {
              "name":"tooling"
           }
        ],
        "commits":[
           {
              "message":"set releaseTargets before inserting build",
              "author":{
                 "email":"jsalverda@travix.com",
                 "name":"Jorrit Salverda",
                 "username":"JorritSalverda"
              }
           }
        ],
        "insertedAt":"2018-11-20T14:50:23.424607Z",
        "updatedAt":"2018-11-20T14:52:02.502005Z",
        "duration":99000000000
     },
     {
        "id":"401905524605255685",
        "repoSource":"github.com",
        "repoOwner":"estafette",
        "repoName":"estafette-ci-api",
        "repoBranch":"master",
        "repoRevision":"dfc1d3ba38dbc8fdf1565ed9f9fb2a72f2d58141",
        "buildVersion":"0.1.335",
        "buildStatus":"succeeded",
        "labels":[
           {
              "key":"app",
              "value":"estafette-ci-api"
           },
           {
              "key":"app-group",
              "value":"estafette-ci"
           },
           {
              "key":"language",
              "value":"golang"
           },
           {
              "key":"team",
              "value":"estafette-team"
           }
        ],
        "releaseTargets":[
           {
              "name":"tooling"
           }
        ],
        "commits":[
           {
              "message":"dry up code",
              "author":{
                 "email":"jsalverda@travix.com",
                 "name":"Jorrit Salverda",
                 "username":"JorritSalverda"
              }
           }
        ],
        "insertedAt":"2018-11-20T13:57:12.459871Z",
        "updatedAt":"2018-11-20T13:58:51.885926Z",
        "duration":99000000000
     },
     {
        "id":"401899416267325443",
        "repoSource":"github.com",
        "repoOwner":"estafette",
        "repoName":"estafette-ci-api",
        "repoBranch":"master",
        "repoRevision":"d6c82fbb85b51f903eaae051de24faa950a48cf2",
        "buildVersion":"0.1.334",
        "buildStatus":"succeeded",
        "labels":[
           {
              "key":"app",
              "value":"estafette-ci-api"
           },
           {
              "key":"app-group",
              "value":"estafette-ci"
           },
           {
              "key":"language",
              "value":"golang"
           },
           {
              "key":"team",
              "value":"estafette-team"
           }
        ],
        "releaseTargets":[
           {
              "name":"tooling"
           }
        ],
        "commits":[
           {
              "message":"get latest releases for a single build",
              "author":{
                 "email":"jsalverda@travix.com",
                 "name":"Jorrit Salverda",
                 "username":"JorritSalverda"
              }
           }
        ],
        "insertedAt":"2018-11-20T13:26:08.343049Z",
        "updatedAt":"2018-11-20T13:27:48.896794Z",
        "duration":100000000000
     },
     {
        "id":"401874195596247043",
        "repoSource":"github.com",
        "repoOwner":"estafette",
        "repoName":"estafette-ci-api",
        "repoBranch":"master",
        "repoRevision":"670256567cc41cadaac44b015fd43e9af76bf27f",
        "buildVersion":"0.1.333",
        "buildStatus":"succeeded",
        "labels":[
           {
              "key":"app",
              "value":"estafette-ci-api"
           },
           {
              "key":"app-group",
              "value":"estafette-ci"
           },
           {
              "key":"language",
              "value":"golang"
           },
           {
              "key":"team",
              "value":"estafette-team"
           }
        ],
        "releaseTargets":[
           {
              "name":"tooling"
           }
        ],
        "commits":[
           {
              "message":"get releases for single pipeline and pipelines fetched by repo name",
              "author":{
                 "email":"jsalverda@travix.com",
                 "name":"Jorrit Salverda",
                 "username":"JorritSalverda"
              }
           }
        ],
        "insertedAt":"2018-11-20T11:17:51.604984Z",
        "updatedAt":"2018-11-20T11:22:37.515043Z",
        "duration":285000000000
     },
     {
        "id":"401643586558066693",
        "repoSource":"github.com",
        "repoOwner":"estafette",
        "repoName":"estafette-ci-api",
        "repoBranch":"master",
        "repoRevision":"ca8ba0ce08bfb6527631a60c3569a7a527314269",
        "buildVersion":"0.1.332",
        "buildStatus":"succeeded",
        "labels":[
           {
              "key":"app",
              "value":"estafette-ci-api"
           },
           {
              "key":"app-group",
              "value":"estafette-ci"
           },
           {
              "key":"language",
              "value":"golang"
           },
           {
              "key":"team",
              "value":"estafette-team"
           }
        ],
        "releaseTargets":[
           {
              "name":"tooling"
           }
        ],
        "commits":[
           {
              "message":"set json attributes for ReleaseTarget",
              "author":{
                 "email":"jsalverda@travix.com",
                 "name":"Jorrit Salverda",
                 "username":"JorritSalverda"
              }
           }
        ],
        "insertedAt":"2018-11-19T15:44:55.31162Z",
        "updatedAt":"2018-11-19T15:46:25.320415Z",
        "duration":90000000000
     }
  ],
  "pagination":{
     "page":1,
     "size":10,
     "totalPages":32,
     "totalItems":316
  }
}