{"items":[{"count":495,"name":"master"},{"count":185,"name":"main"},{"count":73,"name":"run-commands-in-entrypoint-script"},{"count":21,"name":"refactor-pipeline-runner"},{"count":18,"name":"windows-support"},{"count":15,"name":"test-alpha-version"},{"count":13,"name":"multi-stage-services"},{"count":10,"name":"parallel-stages-support"},{"count":7,"name":"use-go-module"},{"count":6,"name":"bots-support"},{"count":6,"name":"vendor-docker-ce-v18.06.1-ce"},{"count":5,"name":"refactor-clients-services"},{"count":4,"name":"add-has-injected-credentials-property"},{"count":3,"name":"mtu_change"},{"count":3,"name":"status-failed-malformed-when"},{"count":2,"name":"fix-retried-stages-build-status"},{"count":2,"name":"integration-test"},{"count":2,"name":"obfuscate-base64-decoded-secret"},{"count":2,"name":"obfuscate-multiline-secret"},{"count":2,"name":"rootless"}],"pagination":{"page":1,"size":20,"totalPages":2,"totalItems":32}}