{"items":[{"count":866,"name":"master"},{"count":79,"name":"main"},{"count":22,"name":"vuejs"},{"count":13,"name":"add-official-helm-chart"},{"count":13,"name":"upload-to-gcs-bucket"},{"count":11,"name":"dashboard-mode"},{"count":10,"name":"upgrade-webpack"},{"count":6,"name":"invalid-manifest-test"},{"count":5,"name":"frequent-labels"},{"count":5,"name":"snyk-upgrade-8b35322d805fb4f6ca706328a7e73e99"},{"count":4,"name":"SearchPipelinesFeature"},{"count":4,"name":"add-auth-requirement"},{"count":4,"name":"purge-cloudflare-cache"},{"count":4,"name":"snyk-upgrade-4035af4878733bed29ceb8015f481c22"},{"count":4,"name":"snyk-upgrade-7174b3df6a5d1b41e4573dbd9cac9835"},{"count":4,"name":"snyk-upgrade-73eb95d99f4e48f086da4d806cd40445"},{"count":3,"name":"logos"},{"count":3,"name":"snyk-upgrade-59641c2d0928293f21280ebb0c2ffea7"},{"count":3,"name":"vue-2.6.10"},{"count":2,"name":"add-triggers-tab"}],"pagination":{"page":1,"size":20,"totalPages":3,"totalItems":50}}