{"items":[{"count":61,"name":"emit-kubernets-events-from-estaffete"},{"count":54,"name":"master"},{"count":22,"name":"new-versioning-strategy"},{"count":18,"name":"add-official-helm-chart"},{"count":18,"name":"watch-for-namespaces"},{"count":15,"name":"main"},{"count":7,"name":"use-k8s-go-client"},{"count":6,"name":"feature-upload-cf-ssl"},{"count":4,"name":"add-helm"},{"count":3,"name":"fix-clusterrole-in-helm-chart"},{"count":3,"name":"redeployOnSecretUpdate"},{"count":2,"name":"1.2.2"},{"count":2,"name":"1.2.5"},{"count":2,"name":"configurable-log-format"},{"count":2,"name":"upgrade-ericchiang-k8s"},{"count":2,"name":"use-go-module"},{"count":1,"name":"1.2.1"},{"count":1,"name":"1.2.10"},{"count":1,"name":"1.2.3"},{"count":1,"name":"1.2.4"}],"pagination":{"page":1,"size":20,"totalPages":2,"totalItems":28}}